…
``` r
summ_table = accel %>% 
  group_by(day_id) %>%
  summarize(total_day_activity = sum(activity))

accel = accel %>% 
  group_by(day_id) %>%
  mutate(
    total_day_activity = sum(activity)
    )

summ_table
```

    ## # A tibble: 35 × 2
    ##    day_id total_day_activity
    ##     <dbl>              <dbl>
    ##  1      1            480543.
    ##  2      2             78828.
    ##  3      3            376254 
    ##  4      4            631105 
    ##  5      5            355924.
    ##  6      6            307094.
    ##  7      7            340115.
    ##  8      8            568839 
    ##  9      9            295431 
    ## 10     10            607175 
    ## # … with 25 more rows
…
